[
    {
        "location": "Melbourne",
        "time": "11 AM",
        "wind": "15 km per hour",
        "visibility": "10 km",
        "skyConditions": "sunny",
        "temperature": "18",
        "dewPoint": "2 C",
        "relativeHumidity": "35",
        "status": "Normal"
    },
    {
        "location": "Melbourne",
        "time": "11 AM",
        "wind": "15 km per hour",
        "visibility": "10 km",
        "skyConditions": "sunny",
        "temperature": "18",
        "dewPoint": "2 C",
        "relativeHumidity": "35",
        "status": "Normal"
    },
    {
        "location": "Melbourne",
        "time": "11 AM",
        "wind": "15 km per hour",
        "visibility": "10 km",
        "skyConditions": "sunny",
        "temperature": "18",
        "dewPoint": "2 C",
        "relativeHumidity": "35",
        "status": "Normal"
    },
    {
        "location": "Melbourne",
        "time": "11 AM",
        "wind": "15 km per hour",
        "visibility": "10 km",
        "skyConditions": "sunny",
        "temperature": "18",
        "dewPoint": "2 C",
        "relativeHumidity": "35",
        "status": "Normal"
    }
]